<svg height="37" viewBox="0 0 61 60" width="37" xmlns="http://www.w3.org/2000/svg">
    <g id="Page-1" fill="none" fill-rule="evenodd">
        <g id="070---Hotel-Menu" fill="rgb(0,0,0)" fill-rule="nonzero">
            <path id="Shape" d="m59.3 13.3-27-13c-.8205935-.39965032-1.7794065-.39965032-2.6 0l-27 13c-1.01761703.4321206-1.71509682 1.3889076-1.81511818 2.4899382-.10002137 1.1010306.41362795 2.1678407 1.33671863 2.7762618.92309069.6084211 2.10600068.6598352 3.07839955.1338l25.7-12.37 25.7 12.37c.4050446.1970966.8495468.299674 1.3.3 1.1506638-.0050111 2.1981412-.6645339 2.7-1.7.7159835-1.4912797.0896849-3.2807043-1.4-4zm-.4 3.137c-.2446631.4914519-.8365433.6982107-1.334.466l-26.132-12.585c-.2745806-.13066667-.5934194-.13066667-.868 0l-26.132 12.582c-.32378635.1726547-.71612654.1541083-1.02218229-.0483198-.30605576-.202428-.47666183-.5562194-.44448802-.9217493s.26195907-.684079.59867031-.8299309l27-13c.2736964-.13147477.5923036-.13147477.866 0l27 13c.49631.2403866.7043391.837184.465 1.334z" style=" stroke:none;fill-rule:nonzero;fill:#929292;fill-opacity:1;"/>
            <path id="Shape" d="m46 18h-4v-2.956c.0045923-.6190385-.2706626-1.207033-.749-1.6-.4560149-.3763435-1.0574301-.5269728-1.637-.41l-24.814 4.986v.019c-.4616585.0886665-.7965183.4909168-.8.961v38c0 1.6568542 1.3431458 3 3 3h29c1.1045695 0 2-.8954305 2-2v-38c0-1.1045695-.8954305-2-2-2zm-6-2.956v2.956h-14.852zm-23 42.956c-.5522847 0-1-.4477153-1-1v-37h30v38z" style=" stroke:none;fill-rule:nonzero;fill:#929292;fill-opacity:1;"/>
            <path id="Shape" d="m25 44c0 .5522847.4477153 1 1 1s1-.4477153 1-1v-10.1c2.3264168-.4784327 3.9970017-2.5248992 4-4.9v-3c0-.5522847-.4477153-1-1-1s-1 .4477153-1 1v3c-.0052514 1.2667854-.8056491 2.3937454-2 2.816v-5.816c0-.5522847-.4477153-1-1-1s-1 .4477153-1 1v5.816c-1.1943509-.4222546-1.9947486-1.5492146-2-2.816v-3c0-.5522847-.4477153-1-1-1s-1 .4477153-1 1v3c.0029983 2.3751008 1.6735832 4.4215673 4 4.9z" style=" stroke:none;fill-rule:nonzero;fill:#929292;fill-opacity:1;"/>
            <path id="Shape" d="m36 25c-.5522847 0-1 .4477153-1 1v18c0 .5522847.4477153 1 1 1s1-.4477153 1-1v-5h2c1.1045695 0 2-.8954305 2-2v-7c.0013285-1.3264893-.5250291-2.5990309-1.4629991-3.5370009s-2.2105116-1.4643276-3.5370009-1.4629991zm3 12h-2v-9.817c1.2042845.4095954 2.0103998 1.5450089 2 2.817z" style=" stroke:none;fill-rule:nonzero;fill:#929292;fill-opacity:1;"/>
            <path id="Shape" d="m38 48h-14c-.5522847 0-1 .4477153-1 1s.4477153 1 1 1h14c.5522847 0 1-.4477153 1-1s-.4477153-1-1-1z" style=" stroke:none;fill-rule:nonzero;fill:#929292;fill-opacity:1;"/>
            <path id="Shape" d="m35 52h-8c-.5522847 0-1 .4477153-1 1s.4477153 1 1 1h8c.5522847 0 1-.4477153 1-1s-.4477153-1-1-1z" style=" stroke:none;fill-rule:nonzero;fill:#929292;fill-opacity:1;"/>
        </g>
    </g>
</svg>