<svg id="Capa_1" enable-background="new 0 0 512 512" height="37" viewBox="0 0 512 512" width="37" xmlns="http://www.w3.org/2000/svg">
    <g id="OUTLINE">
        <path d="m391.896 300.709-87.896-34.181v-28.895c15.956-11.982 26.864-29.489 30.588-49.092l25.252-35.352c27.851-38.992 18.819-93.178-20.172-121.028-14.715-10.511-32.345-16.161-50.428-16.161h-66.48c-47.917 0-86.76 38.845-86.76 86.761 0 18.082 5.65 35.713 16.16 50.427l25.252 35.352c3.724 19.603 14.632 37.11 30.588 49.092v28.895l-87.896 34.181c-33.824 13.155-56.104 45.725-56.104 82.018v89.274c.015 13.249 10.751 23.985 24 24h336c13.249-.015 23.985-10.751 24-24v-89.274c0-36.293-22.28-68.863-56.104-82.017zm-303.896 179.291c-4.416-.005-7.995-3.584-8-8v-89.274c-.105-24.082 11.924-46.597 32-59.897v149.171c-.001 2.726.464 5.431 1.376 8zm247.642-184h-64.093l25.205-15.123zm-79.642-9.33-32-19.2v-20.507c20.387 8.987 43.613 8.987 64-.001v20.508zm-80-174.67v47.037l-10.82-15.148c-22.714-31.801-15.348-75.995 16.453-98.709 12-8.572 26.379-13.18 41.127-13.18h66.48c39.08.001 70.76 31.682 70.76 70.762 0 14.747-4.608 29.126-13.18 41.127l-10.82 15.148v-47.037c-.015-13.249-10.751-23.985-24-24-10.973.012-21.377-4.877-28.37-13.333l17.02-12.157-9.301-13.02-44.306 31.647c-6.242 4.476-13.734 6.877-21.415 6.863h-25.628c-13.249.015-23.985 10.751-24 24zm16 61.635v-61.635c.005-4.416 3.584-7.995 8-8h25.629c11.017.02 21.762-3.423 30.715-9.843l14.243-10.173c10.013 12.659 25.272 20.035 41.413 20.016 4.416.005 7.995 3.584 8 8v61.635c-.001 3.472-.286 6.939-.85 10.365h-40.526c-4.418-12.497-18.131-19.046-30.627-14.627-12.497 4.418-19.046 18.131-14.627 30.627s18.131 19.046 30.627 14.627c6.835-2.416 12.211-7.793 14.627-14.627h35.681c-14.558 32.205-52.467 46.51-84.672 31.951-22.912-10.357-37.635-33.172-37.633-58.316zm72 18.365c0 4.418-3.582 8-8 8s-8-3.582-8-8 3.582-8 8-8c4.416.005 7.995 3.584 8 8zm-48.754 88.877 25.205 15.123h-64.093zm168.754 191.123c-.005 4.416-3.584 7.995-8 8h-240c-4.416-.005-7.995-3.584-8-8v-152c-.236-3.149 2.891-8.118 8-8h240c5.865-.002 8 5.074 8 8zm48 0c-.005 4.416-3.584 7.995-8 8h-25.376c.912-2.569 1.377-5.274 1.376-8v-149.172c20.076 13.3 32.105 35.816 32 59.897z" style=" stroke:none;fill-rule:nonzero;fill:#929292;fill-opacity:1;"/>
        <path d="m216 136h24v16h-24z" style=" stroke:none;fill-rule:nonzero;fill:#929292;fill-opacity:1;"/>
        <path d="m272 136h24v16h-24z" style=" stroke:none;fill-rule:nonzero;fill:#929292;fill-opacity:1;"/>
        <path d="m256 356c-22.091 0-40 17.909-40 40s17.909 40 40 40 40-17.909 40-40c-.025-22.081-17.919-39.975-40-40zm0 64c-13.255 0-24-10.745-24-24s10.745-24 24-24 24 10.745 24 24c-.015 13.249-10.751 23.985-24 24z" />
        <path d="m48 160h48v16h-48z" style=" stroke:none;fill-rule:nonzero;fill:#929292;fill-opacity:1;"/>
        <path d="m48 192h48v16h-48z" style=" stroke:none;fill-rule:nonzero;fill:#929292;fill-opacity:1;"/>
        <path d="m48 224h48v16h-48z" style=" stroke:none;fill-rule:nonzero;fill:#929292;fill-opacity:1;"/>
        <path d="m128 229.333v-77.333c-.015-13.249-10.751-23.985-24-24h-64c-13.249.015-23.985 10.751-24 24v96c.015 13.249 10.751 23.985 24 24h120zm-88 26.667c-4.416-.005-7.995-3.584-8-8v-96c.005-4.416 3.584-7.995 8-8h64c4.416.005 7.995 3.584 8 8v82.667l16 21.333z" style=" stroke:none;fill-rule:nonzero;fill:#929292;fill-opacity:1;"/>
        <path d="m416 160h48v16h-48z" style=" stroke:none;fill-rule:nonzero;fill:#929292;fill-opacity:1;"/>
        <path d="m416 192h48v16h-48z" style=" stroke:none;fill-rule:nonzero;fill:#929292;fill-opacity:1;"/>
        <path d="m416 224h48v16h-48z" style=" stroke:none;fill-rule:nonzero;fill:#929292;fill-opacity:1;"/>
        <path d="m472 128h-64c-13.249.015-23.985 10.751-24 24v77.333l-32 42.667h120c13.249-.015 23.985-10.751 24-24v-96c-.015-13.249-10.751-23.985-24-24zm8 120c-.005 4.416-3.584 7.995-8 8h-88l16-21.333v-82.667c.005-4.416 3.584-7.995 8-8h64c4.416.005 7.995 3.584 8 8z" style=" stroke:none;fill-rule:nonzero;fill:#929292;fill-opacity:1;"/>
    </g>
</svg>